<?xml version="1.0" encoding="UTF-8" standalone="no"?>
<!-- Created with Inkscape (http://www.inkscape.org/) -->

<svg
   xmlns:dc="http://purl.org/dc/elements/1.1/"
   xmlns:cc="http://creativecommons.org/ns#"
   xmlns:rdf="http://www.w3.org/1999/02/22-rdf-syntax-ns#"
   xmlns:svg="http://www.w3.org/2000/svg"
   xmlns="http://www.w3.org/2000/svg"
   xmlns:sodipodi="http://sodipodi.sourceforge.net/DTD/sodipodi-0.dtd"
   xmlns:inkscape="http://www.inkscape.org/namespaces/inkscape"
   width="8.5in"
   height="11in"
   viewBox="0 0 215.9 279.40001"
   version="1.1"
   id="svg8"
   inkscape:version="0.92.2 2405546, 2018-03-11"
   sodipodi:docname="postertexts.svg">
  <defs
     id="defs2" />
  <sodipodi:namedview
     id="base"
     pagecolor="#ffffff"
     bordercolor="#666666"
     borderopacity="1.0"
     inkscape:pageopacity="0.0"
     inkscape:pageshadow="2"
     inkscape:zoom="0.49497475"
     inkscape:cx="546.65324"
     inkscape:cy="489.33884"
     inkscape:document-units="in"
     inkscape:current-layer="layer1"
     showgrid="false"
     units="in"
     inkscape:window-width="1364"
     inkscape:window-height="746"
     inkscape:window-x="0"
     inkscape:window-y="20"
     inkscape:window-maximized="1" />
  <metadata
     id="metadata5">
    <rdf:RDF>
      <cc:Work
         rdf:about="">
        <dc:format>image/svg+xml</dc:format>
        <dc:type
           rdf:resource="http://purl.org/dc/dcmitype/StillImage" />
        <dc:title></dc:title>
      </cc:Work>
    </rdf:RDF>
  </metadata>
  <g
     inkscape:label="Layer 1"
     inkscape:groupmode="layer"
     id="layer1"
     transform="translate(0,-17.599984)">
    <rect
       style="opacity:1;vector-effect:none;fill:#ffffff;fill-opacity:1;stroke:none;stroke-width:1.24270093;stroke-linecap:butt;stroke-linejoin:miter;stroke-miterlimit:4;stroke-dasharray:none;stroke-dashoffset:0;stroke-opacity:1"
       id="rect4835"
       width="215.90001"
       height="279.39999"
       x="-2.6458185e-06"
       y="17.599989"
       inkscape:export-filename="/home/sejo/e/about/quickanddirtyshow_20180327/postertexts.png"
       inkscape:export-xdpi="300"
       inkscape:export-ydpi="300" />
    <text
       xml:space="preserve"
       style="font-style:normal;font-variant:normal;font-weight:normal;font-stretch:normal;font-size:8.27499008px;line-height:8.06811523px;font-family:SejoScript;-inkscape-font-specification:SejoScript;letter-spacing:0px;word-spacing:0px;fill:#000000;fill-opacity:1;stroke:none;stroke-width:0.62062424"
       x="102.49229"
       y="66.74865"
       id="text4520"><tspan
         sodipodi:role="line"
         x="102.49229"
         y="66.74865"
         style="line-height:8.06811523px;text-align:center;text-anchor:middle;stroke-width:0.62062424"
         id="tspan4522">or a journey to obtain</tspan><tspan
         sodipodi:role="line"
         x="103.52666"
         y="74.816765"
         style="line-height:8.06811523px;text-align:center;text-anchor:middle;stroke-width:0.62062424"
         id="tspan4524">an all-access pass </tspan><tspan
         sodipodi:role="line"
         x="102.49229"
         y="83.217819"
         style="line-height:8.06811523px;text-align:center;text-anchor:middle;stroke-width:0.62062424"
         id="tspan4526">to existential anxiety</tspan><tspan
         sodipodi:role="line"
         x="102.49229"
         y="91.285934"
         style="line-height:8.06811523px;text-align:center;text-anchor:middle;stroke-width:0.62062424"
         id="tspan4528">and attain some kind</tspan><tspan
         sodipodi:role="line"
         x="102.49229"
         y="99.35405"
         style="line-height:8.06811523px;text-align:center;text-anchor:middle;stroke-width:0.62062424"
         id="tspan4530">of enlightment</tspan></text>
    <text
       xml:space="preserve"
       style="font-style:normal;font-variant:normal;font-weight:normal;font-stretch:normal;font-size:8.27499008px;line-height:8.06811523px;font-family:SejoScript;-inkscape-font-specification:SejoScript;letter-spacing:0px;word-spacing:0px;fill:#000000;fill-opacity:1;stroke:none;stroke-width:0.62062424"
       x="103.08296"
       y="53.356384"
       id="text4520-3"><tspan
         sodipodi:role="line"
         x="103.08296"
         y="53.356384"
         style="font-size:16.54998016px;line-height:8.06811523px;text-align:center;text-anchor:middle;stroke-width:0.62062424"
         id="tspan4530-6">everything must go</tspan></text>
    <text
       xml:space="preserve"
       style="font-style:normal;font-variant:normal;font-weight:normal;font-stretch:normal;font-size:5.82954884px;line-height:5.68380976px;font-family:SejoScript;-inkscape-font-specification:SejoScript;letter-spacing:0px;word-spacing:0px;fill:#000000;fill-opacity:1;stroke:none;stroke-width:0.43721616"
       x="16.7003"
       y="124.29375"
       id="text4520-2"><tspan
         sodipodi:role="line"
         x="16.7003"
         y="124.29375"
         style="line-height:5.68380976px;text-align:start;text-anchor:start;stroke-width:0.43721616"
         id="tspan4640">a conversation between</tspan><tspan
         sodipodi:role="line"
         x="16.7003"
         y="129.97755"
         style="line-height:5.68380976px;text-align:start;text-anchor:start;stroke-width:0.43721616"
         id="tspan4644">silence,</tspan><tspan
         sodipodi:role="line"
         x="16.7003"
         y="135.66136"
         style="line-height:5.68380976px;text-align:start;text-anchor:start;stroke-width:0.43721616"
         id="tspan4646">pre-recorded laughter,</tspan><tspan
         sodipodi:role="line"
         x="16.7003"
         y="141.57973"
         style="line-height:5.68380976px;text-align:start;text-anchor:start;stroke-width:0.43721616"
         id="tspan4648">and cyborg in existential anxiety. </tspan><tspan
         sodipodi:role="line"
         x="16.7003"
         y="147.26353"
         style="line-height:5.68380976px;text-align:start;text-anchor:start;stroke-width:0.43721616"
         id="tspan4650">moderated with chance operations</tspan><tspan
         sodipodi:role="line"
         x="16.7003"
         y="152.94734"
         style="line-height:5.68380976px;text-align:start;text-anchor:start;stroke-width:0.43721616"
         id="tspan4652">by a computer using a synthesized voice.</tspan></text>
    <text
       xml:space="preserve"
       style="font-style:normal;font-variant:normal;font-weight:normal;font-stretch:normal;font-size:4.91535187px;line-height:4.79246759px;font-family:SejoScript;-inkscape-font-specification:SejoScript;letter-spacing:0px;word-spacing:0px;fill:#000000;fill-opacity:1;stroke:none;stroke-width:0.36865139"
       x="14.594129"
       y="168.32153"
       id="text4520-2-6"><tspan
         sodipodi:role="line"
         x="14.594129"
         y="168.32153"
         style="line-height:4.79246759px;text-align:start;text-anchor:start;stroke-width:0.36865139"
         id="tspan4652-0">an uncomfortable journey.</tspan><tspan
         sodipodi:role="line"
         x="14.594129"
         y="173.114"
         style="line-height:4.79246759px;text-align:start;text-anchor:start;stroke-width:0.36865139"
         id="tspan4707">silence as interruption, or as punishment, or as stream of consciousness, or as pleasure.</tspan><tspan
         sodipodi:role="line"
         x="14.594129"
         y="177.90646"
         style="line-height:4.79246759px;text-align:start;text-anchor:start;stroke-width:0.36865139"
         id="tspan4709">nothing and nowhere to grasp (and we fall?)</tspan><tspan
         sodipodi:role="line"
         x="14.594129"
         y="182.69893"
         style="line-height:4.79246759px;text-align:start;text-anchor:start;stroke-width:0.36865139"
         id="tspan4711">tasting the infinity.</tspan><tspan
         sodipodi:role="line"
         x="14.594129"
         y="187.49141"
         style="line-height:4.79246759px;text-align:start;text-anchor:start;stroke-width:0.36865139"
         id="tspan4713">unintelligible words.</tspan><tspan
         sodipodi:role="line"
         x="14.594129"
         y="192.28387"
         style="line-height:4.79246759px;text-align:start;text-anchor:start;stroke-width:0.36865139"
         id="tspan4715">time doesn't matter anymore.</tspan><tspan
         sodipodi:role="line"
         x="14.594129"
         y="197.27411"
         style="line-height:4.79246759px;text-align:start;text-anchor:start;stroke-width:0.36865139"
         id="tspan4717">who has the power? who is under control? (in the performance or in the universe?)</tspan><tspan
         sodipodi:role="line"
         x="14.594129"
         y="202.06657"
         style="line-height:4.79246759px;text-align:start;text-anchor:start;stroke-width:0.36865139"
         id="tspan4719">the machine stays the same, the human starts to crack.</tspan><tspan
         sodipodi:role="line"
         x="14.594129"
         y="206.85904"
         style="line-height:4.79246759px;text-align:start;text-anchor:start;stroke-width:0.36865139"
         id="tspan4721">why are we here? (in the performance or in the universe?).</tspan><tspan
         sodipodi:role="line"
         x="14.594129"
         y="211.6515"
         style="line-height:4.79246759px;text-align:start;text-anchor:start;stroke-width:0.36865139"
         id="tspan4723">metaphor of life.</tspan><tspan
         sodipodi:role="line"
         x="14.594129"
         y="216.44397"
         style="line-height:4.79246759px;text-align:start;text-anchor:start;stroke-width:0.36865139"
         id="tspan4725">at least two types of silence.</tspan><tspan
         sodipodi:role="line"
         x="14.594129"
         y="221.23645"
         style="line-height:4.79246759px;text-align:start;text-anchor:start;stroke-width:0.36865139"
         id="tspan4727">we could go on forever.</tspan><tspan
         sodipodi:role="line"
         x="14.594129"
         y="226.02892"
         style="line-height:4.79246759px;text-align:start;text-anchor:start;stroke-width:0.36865139"
         id="tspan4729">the answers are meaningless and yet we have to ask.</tspan><tspan
         sodipodi:role="line"
         x="14.594129"
         y="230.82138"
         style="line-height:4.79246759px;text-align:start;text-anchor:start;stroke-width:0.36865139"
         id="tspan4731">there's nothing to understand.</tspan><tspan
         sodipodi:role="line"
         x="14.594129"
         y="235.81161"
         style="line-height:4.79246759px;text-align:start;text-anchor:start;stroke-width:0.36865139"
         id="tspan4733">clinging to reason leads nowhere.</tspan><tspan
         sodipodi:role="line"
         x="14.594129"
         y="240.60408"
         style="line-height:4.79246759px;text-align:start;text-anchor:start;stroke-width:0.36865139"
         id="tspan4735">what does it mean to listen? (in the performance or in the universe?)</tspan><tspan
         sodipodi:role="line"
         x="14.594129"
         y="245.39656"
         style="line-height:4.79246759px;text-align:start;text-anchor:start;stroke-width:0.36865139"
         id="tspan4737">perception as an individual decision.</tspan><tspan
         sodipodi:role="line"
         x="14.594129"
         y="250.18901"
         style="line-height:4.79246759px;text-align:start;text-anchor:start;stroke-width:0.36865139"
         id="tspan4739">there's always a space for laughter.</tspan><tspan
         sodipodi:role="line"
         x="14.594129"
         y="255.17924"
         style="line-height:4.79246759px;text-align:start;text-anchor:start;stroke-width:0.36865139"
         id="tspan4741">words don't matter anymore.</tspan><tspan
         sodipodi:role="line"
         x="14.594129"
         y="260.16949"
         style="line-height:4.79246759px;text-align:start;text-anchor:start;stroke-width:0.36865139"
         id="tspan4743">arbitrary rules.</tspan><tspan
         sodipodi:role="line"
         x="14.594129"
         y="264.96198"
         style="line-height:4.79246759px;text-align:start;text-anchor:start;stroke-width:0.36865139"
         id="tspan4745">unique feeling.</tspan><tspan
         sodipodi:role="line"
         x="14.594129"
         y="269.75443"
         style="line-height:4.79246759px;text-align:start;text-anchor:start;stroke-width:0.36865139"
         id="tspan4747">maybe it's better to not understand? (in the performance or in the universe?)</tspan></text>
    <text
       xml:space="preserve"
       style="font-style:normal;font-variant:normal;font-weight:normal;font-stretch:normal;font-size:7.5550909px;line-height:7.36621332px;font-family:SejoScript;-inkscape-font-specification:SejoScript;letter-spacing:0px;word-spacing:0px;fill:#000000;fill-opacity:1;stroke:none;stroke-width:0.56663185"
       x="123.09331"
       y="98.405785"
       id="text4520-2-2"
       transform="rotate(9.0699669)"><tspan
         sodipodi:role="line"
         x="123.09331"
         y="98.405785"
         style="line-height:7.36621332px;text-align:start;text-anchor:start;stroke-width:0.56663185"
         id="tspan4652-2">listen to the audio recording</tspan><tspan
         sodipodi:role="line"
         x="123.09331"
         y="105.772"
         style="line-height:7.36621332px;text-align:start;text-anchor:start;stroke-width:0.56663185"
         id="tspan4802">(one hour eleven minutes long!)</tspan><tspan
         sodipodi:role="line"
         x="123.09331"
         y="113.13821"
         style="line-height:7.36621332px;text-align:start;text-anchor:start;stroke-width:0.56663185"
         id="tspan4804">read the companion booklet!</tspan></text>
    <text
       xml:space="preserve"
       style="font-style:normal;font-variant:normal;font-weight:normal;font-stretch:normal;font-size:7.5550909px;line-height:7.36621332px;font-family:SejoScript;-inkscape-font-specification:SejoScript;letter-spacing:0px;word-spacing:0px;fill:#000000;fill-opacity:1;stroke:none;stroke-width:0.56663185"
       x="100.94928"
       y="163.65625"
       id="text4520-2-2-8"><tspan
         sodipodi:role="line"
         x="100.94928"
         y="163.65625"
         style="line-height:7.36621332px;text-align:start;text-anchor:start;stroke-width:0.56663185"
         id="tspan4804-3">eccs.world/everythingmustgo</tspan></text>
  </g>
</svg>
