\relax 
\providecommand*{\memsetcounter}[2]{}
\catcode `"\active 
\catcode `<\active 
\catcode `>\active 
\@nameuse{es@quoting}
\bibstyle{biblatex}
\bibdata{test-blx,references}
\citation{biblatex-control}
\abx@aux@refcontext{nty/global//global/global}
\@writefile{toc}{\boolfalse {citerequest}\boolfalse {citetracker}\boolfalse {pagetracker}\boolfalse {backtracker}\relax }
\@writefile{lof}{\boolfalse {citerequest}\boolfalse {citetracker}\boolfalse {pagetracker}\boolfalse {backtracker}\relax }
\@writefile{lot}{\boolfalse {citerequest}\boolfalse {citetracker}\boolfalse {pagetracker}\boolfalse {backtracker}\relax }
\babel@aux{english}{}
\@writefile{toc}{\defcounter {refsection}{0}\relax }\@writefile{toc}{\contentsline {chapter}{contents}{iii}}
\@writefile{lof}{\defcounter {refsection}{0}\relax }\@writefile{lof}{\addvspace {10pt}}
\@writefile{lot}{\defcounter {refsection}{0}\relax }\@writefile{lot}{\addvspace {10pt}}
\@writefile{toc}{\defcounter {refsection}{0}\relax }\@writefile{toc}{\contentsline {chapter}{introduction}{1}}
\@writefile{toc}{\defcounter {refsection}{0}\relax }\@writefile{toc}{\contentsline {part}{performance texts}{3}}
\@writefile{lof}{\defcounter {refsection}{0}\relax }\@writefile{lof}{\addvspace {10pt}}
\@writefile{lot}{\defcounter {refsection}{0}\relax }\@writefile{lot}{\addvspace {10pt}}
\@writefile{toc}{\defcounter {refsection}{0}\relax }\@writefile{toc}{\contentsline {chapter}{warning}{5}}
\@writefile{lof}{\defcounter {refsection}{0}\relax }\@writefile{lof}{\addvspace {10pt}}
\@writefile{lot}{\defcounter {refsection}{0}\relax }\@writefile{lot}{\addvspace {10pt}}
\@writefile{toc}{\defcounter {refsection}{0}\relax }\@writefile{toc}{\contentsline {chapter}{the moderator: intro}{7}}
\@writefile{lof}{\defcounter {refsection}{0}\relax }\@writefile{lof}{\addvspace {10pt}}
\@writefile{lot}{\defcounter {refsection}{0}\relax }\@writefile{lot}{\addvspace {10pt}}
\@writefile{toc}{\defcounter {refsection}{0}\relax }\@writefile{toc}{\contentsline {chapter}{diary 1 - january 22 to march 22, 2018}{9}}
\@writefile{lof}{\defcounter {refsection}{0}\relax }\@writefile{lof}{\addvspace {10pt}}
\@writefile{lot}{\defcounter {refsection}{0}\relax }\@writefile{lot}{\addvspace {10pt}}
\@writefile{toc}{\defcounter {refsection}{0}\relax }\@writefile{toc}{\contentsline {chapter}{seed words for diary 1}{29}}
\@writefile{lof}{\defcounter {refsection}{0}\relax }\@writefile{lof}{\addvspace {10pt}}
\@writefile{lot}{\defcounter {refsection}{0}\relax }\@writefile{lot}{\addvspace {10pt}}
\@writefile{toc}{\defcounter {refsection}{0}\relax }\@writefile{toc}{\contentsline {chapter}{free flow dialogue}{31}}
\@writefile{lof}{\defcounter {refsection}{0}\relax }\@writefile{lof}{\addvspace {10pt}}
\@writefile{lot}{\defcounter {refsection}{0}\relax }\@writefile{lot}{\addvspace {10pt}}
\@writefile{toc}{\defcounter {refsection}{0}\relax }\@writefile{toc}{\contentsline {chapter}{circular dialogue with chance-based structure}{35}}
\@writefile{lof}{\defcounter {refsection}{0}\relax }\@writefile{lof}{\addvspace {10pt}}
\@writefile{lot}{\defcounter {refsection}{0}\relax }\@writefile{lot}{\addvspace {10pt}}
\@writefile{toc}{\defcounter {refsection}{0}\relax }\@writefile{toc}{\contentsline {chapter}{both dialogues combined and shuffled together}{41}}
\@writefile{lof}{\defcounter {refsection}{0}\relax }\@writefile{lof}{\addvspace {10pt}}
\@writefile{lot}{\defcounter {refsection}{0}\relax }\@writefile{lot}{\addvspace {10pt}}
\@writefile{toc}{\defcounter {refsection}{0}\relax }\@writefile{toc}{\contentsline {chapter}{the moderator: questions and answers}{49}}
\@writefile{lof}{\defcounter {refsection}{0}\relax }\@writefile{lof}{\addvspace {10pt}}
\@writefile{lot}{\defcounter {refsection}{0}\relax }\@writefile{lot}{\addvspace {10pt}}
\@writefile{toc}{\defcounter {refsection}{0}\relax }\@writefile{toc}{\contentsline {chapter}{the moderator: new question}{51}}
\@writefile{lof}{\defcounter {refsection}{0}\relax }\@writefile{lof}{\addvspace {10pt}}
\@writefile{lot}{\defcounter {refsection}{0}\relax }\@writefile{lot}{\addvspace {10pt}}
\@writefile{toc}{\defcounter {refsection}{0}\relax }\@writefile{toc}{\contentsline {chapter}{the moderator: outro}{53}}
\@writefile{toc}{\defcounter {refsection}{0}\relax }\@writefile{toc}{\contentsline {part}{meta texts}{55}}
\@writefile{lof}{\defcounter {refsection}{0}\relax }\@writefile{lof}{\addvspace {10pt}}
\@writefile{lot}{\defcounter {refsection}{0}\relax }\@writefile{lot}{\addvspace {10pt}}
\@writefile{toc}{\defcounter {refsection}{0}\relax }\@writefile{toc}{\contentsline {chapter}{post-first showing thoughts}{57}}
\@writefile{lof}{\defcounter {refsection}{0}\relax }\@writefile{lof}{\addvspace {10pt}}
\@writefile{lot}{\defcounter {refsection}{0}\relax }\@writefile{lot}{\addvspace {10pt}}
\@writefile{toc}{\defcounter {refsection}{0}\relax }\@writefile{toc}{\contentsline {chapter}{initial project presentation}{59}}
\@writefile{lof}{\defcounter {refsection}{0}\relax }\@writefile{lof}{\addvspace {10pt}}
\@writefile{lot}{\defcounter {refsection}{0}\relax }\@writefile{lot}{\addvspace {10pt}}
\@writefile{toc}{\defcounter {refsection}{0}\relax }\@writefile{toc}{\contentsline {chapter}{an attempted \IeC {\textquotedblleft }formal\IeC {\textquotedblright } description of the work}{61}}
\@writefile{lof}{\defcounter {refsection}{0}\relax }\@writefile{lof}{\addvspace {10pt}}
\@writefile{lot}{\defcounter {refsection}{0}\relax }\@writefile{lot}{\addvspace {10pt}}
\@writefile{toc}{\defcounter {refsection}{0}\relax }\@writefile{toc}{\contentsline {chapter}{an attempted description in spanish}{65}}
\@writefile{lof}{\defcounter {refsection}{0}\relax }\@writefile{lof}{\addvspace {10pt}}
\@writefile{lot}{\defcounter {refsection}{0}\relax }\@writefile{lot}{\addvspace {10pt}}
\@writefile{toc}{\defcounter {refsection}{0}\relax }\@writefile{toc}{\contentsline {chapter}{personal statement}{69}}
\@writefile{toc}{\defcounter {refsection}{0}\relax }\@writefile{toc}{\contentsline {part}{back matter sections}{71}}
\@writefile{lof}{\defcounter {refsection}{0}\relax }\@writefile{lof}{\addvspace {10pt}}
\@writefile{lot}{\defcounter {refsection}{0}\relax }\@writefile{lot}{\addvspace {10pt}}
\@writefile{toc}{\defcounter {refsection}{0}\relax }\@writefile{toc}{\contentsline {chapter}{acknowledgements}{73}}
\@writefile{lof}{\defcounter {refsection}{0}\relax }\@writefile{lof}{\addvspace {10pt}}
\@writefile{lot}{\defcounter {refsection}{0}\relax }\@writefile{lot}{\addvspace {10pt}}
\@writefile{toc}{\defcounter {refsection}{0}\relax }\@writefile{toc}{\contentsline {chapter}{free (libre) software acknowledgements}{75}}
\citation{*}
\@writefile{lof}{\defcounter {refsection}{0}\relax }\@writefile{lof}{\addvspace {10pt}}
\@writefile{lot}{\defcounter {refsection}{0}\relax }\@writefile{lot}{\addvspace {10pt}}
\@writefile{toc}{\defcounter {refsection}{0}\relax }\@writefile{toc}{\contentsline {chapter}{sources and resources}{77}}
\@writefile{toc}{\defcounter {refsection}{0}\relax }\@writefile{toc}{\contentsline {chapter}{books i read/consulted during the process}{79}}
\abx@aux@page{1}{79}
\abx@aux@page{2}{79}
\abx@aux@page{3}{79}
\abx@aux@page{4}{79}
\abx@aux@page{5}{79}
\abx@aux@page{6}{79}
\abx@aux@page{7}{79}
\abx@aux@page{8}{79}
\abx@aux@page{9}{79}
\abx@aux@page{10}{79}
\abx@aux@page{11}{79}
\abx@aux@page{12}{79}
\abx@aux@page{13}{80}
\abx@aux@page{14}{80}
\abx@aux@page{15}{80}
\abx@aux@page{16}{80}
\abx@aux@page{17}{80}
\abx@aux@page{18}{80}
\abx@aux@page{19}{80}
\abx@aux@page{20}{80}
\abx@aux@page{21}{80}
\abx@aux@page{22}{80}
\abx@aux@page{23}{80}
\abx@aux@page{24}{80}
\abx@aux@page{25}{80}
\abx@aux@page{26}{80}
\abx@aux@page{27}{80}
\abx@aux@refcontextdefaultsdone
\abx@aux@defaultrefcontext{0}{bifo}{nty/global//global/global}
\abx@aux@defaultrefcontext{0}{theatreoftheoppressed}{nty/global//global/global}
\abx@aux@defaultrefcontext{0}{posthuman}{nty/global//global/global}
\abx@aux@defaultrefcontext{0}{ecodeviance}{nty/global//global/global}
\abx@aux@defaultrefcontext{0}{yearfrommonday}{nty/global//global/global}
\abx@aux@defaultrefcontext{0}{silence}{nty/global//global/global}
\abx@aux@defaultrefcontext{0}{riane}{nty/global//global/global}
\abx@aux@defaultrefcontext{0}{momo}{nty/global//global/global}
\abx@aux@defaultrefcontext{0}{theatreoftheabsurd}{nty/global//global/global}
\abx@aux@defaultrefcontext{0}{taoofpooh}{nty/global//global/global}
\abx@aux@defaultrefcontext{0}{cageecopoetics}{nty/global//global/global}
\abx@aux@defaultrefcontext{0}{darkmountain}{nty/global//global/global}
\abx@aux@defaultrefcontext{0}{patterning}{nty/global//global/global}
\abx@aux@defaultrefcontext{0}{mcluhan}{nty/global//global/global}
\abx@aux@defaultrefcontext{0}{mess}{nty/global//global/global}
\abx@aux@defaultrefcontext{0}{outofthewreckage}{nty/global//global/global}
\abx@aux@defaultrefcontext{0}{humankind}{nty/global//global/global}
\abx@aux@defaultrefcontext{0}{geographyofthought}{nty/global//global/global}
\abx@aux@defaultrefcontext{0}{anabella}{nty/global//global/global}
\abx@aux@defaultrefcontext{0}{antipoems}{nty/global//global/global}
\abx@aux@defaultrefcontext{0}{elqui2}{nty/global//global/global}
\abx@aux@defaultrefcontext{0}{elqui1}{nty/global//global/global}
\abx@aux@defaultrefcontext{0}{essays}{nty/global//global/global}
\abx@aux@defaultrefcontext{0}{brecht}{nty/global//global/global}
\abx@aux@defaultrefcontext{0}{introzen}{nty/global//global/global}
\abx@aux@defaultrefcontext{0}{zen}{nty/global//global/global}
\abx@aux@defaultrefcontext{0}{zenmind}{nty/global//global/global}
\memsetcounter{lastsheet}{84}
\memsetcounter{lastpage}{80}
